Assignment 4:
…
geo
BE211
Arr. Antwerpen

geo
BE212
Arr. Mechelen

geo
BE213
Arr. Turnhout

[1] 30058     3

# A tibble: 30,058 x 3
   geo   time     gdp_n3
   <chr> <chr>     <dbl>
 1 AL011 2008  551130000
 2 AL011 2009  582160000
 3 AL011 2010  664070000
 4 AL011 2011  631170000
 5 AL011 2012  717600000
 6 AL011 2013  696860000
 7 AL011 2014  735600000
 8 AL011 2015  788630000
 9 AL011 2016  801980000
10 AL011 2017  800660000
# i 30,048 more rows
…
Oppgave 5

Undersøk om vi har noen NUTS 3 soner med pop_n3 lik 0. Hvis det er noen så endre disse til NA. Undersøker:

# A tibble: 0 x 8
# i 8 variables: n3 <chr>, time <chr>, gdp_n3 <dbl>, pop_n3 <dbl>,
#   gdp_pc_n3 <dbl>, n2 <chr>, n1 <chr>, nc <chr>

Fant ingen rader med 0 og vi går videre, trenger ikke å endre noe til NA.

Oppgave 6

Sjekker hvor mange NUTS3 soner vi har i hvert land, tar en strukturkontroll:

# A tibble: 29 x 2
   nc    num_nuts3
   <chr>     <int>
 1 DE          400
 2 IT          107
 3 FR          100
 4 TR           81
 5 PL           73
 6 ES           59
 7 EL           52
 8 BE           44
 9 RO           42
10 AT           35
# i 19 more rows
…
Får samme som oppgaven. På landsnivå varierer Gini fra 0,1111 til 0,3991. Antall NUTS3 regioner per land varierer fra 1 til 400.

“Nestete” datastrukturer

Vi vil nå «neste» de ulike gini_NUTS* datasettene og sette dem sammen til et nestet datasett eu_data_nestet som innholder alle dataene ovenfor i en fint ordnet struktur.

Oppgave 13

“neste” dataene på NUTS3 nivå

# A tibble: 29 x 3
   nc    nc_name   NUTS3_data          
   <chr> <chr>     <list>              
 1 AL    Albania   <tibble [168 x 7]>  
 2 AT    Østerrike <tibble [805 x 7]>  
 3 BE    Belgia    <tibble [880 x 7]>  
 4 BG    Bulgaria  <tibble [644 x 7]>  
 5 CY    Kypros    <tibble [23 x 7]>   
 6 CZ    Tjekkia   <tibble [322 x 7]>  
 7 DE    Tyskland  <tibble [9,200 x 7]>
 8 DK    Danmark   <tibble [253 x 7]>  
 9 EE    Estland   <tibble [115 x 7]>  
10 EL    Hellas    <tibble [1,196 x 7]>
# i 19 more rows
…
